<?xml version="1.0" standalone="no"?>
<!DOCTYPE svg PUBLIC "-//W3C//DTD SVG 20010904//EN"
 "http://www.w3.org/TR/2001/REC-SVG-20010904/DTD/svg10.dtd">
<svg version="1.0" xmlns="http://www.w3.org/2000/svg"
 width="117.483138pt" height="118.295311pt" viewBox="0 0 117.483138 118.295311"
 preserveAspectRatio="xMidYMid meet">
<metadata>
Created by potrace 1.12, written by Peter Selinger 2001-2015
</metadata>
<g transform="translate(-8.523612,126.896989) scale(0.100000,-0.100000)"
fill="#000000" stroke="none">
<path d="M690 1256 c-70 -15 -105 -34 -153 -83 -134 -133 -125 -345 19 -466
17 -15 34 -24 37 -21 3 4 3 28 0 54 -7 62 17 103 87 151 79 54 98 123 60 219
-26 67 -25 96 5 126 39 39 36 40 -55 20z m-46 -197 c-3 -5 0 -16 6 -24 10 -12
10 -15 0 -15 -8 0 -22 -7 -32 -17 -17 -15 -18 -15 -18 0 0 10 -6 17 -14 17
-11 0 -12 5 -3 24 8 16 20 23 39 24 16 0 26 -4 22 -9z m-90 -134 c-19 -67 -14
-126 16 -185 28 -55 25 -62 -6 -16 -35 52 -43 142 -19 215 23 70 31 58 9 -14z"/>
<path d="M94 955 c-5 -11 -9 -58 -9 -105 0 -72 4 -92 27 -135 38 -71 79 -112
145 -143 49 -23 71 -27 143 -27 72 0 93 4 136 27 61 32 74 53 35 56 -46 4 -89
22 -104 45 -7 12 -24 49 -36 82 -40 106 -82 135 -199 135 -85 0 -100 8 -120
60 -10 24 -10 24 -18 5z m188 -177 c12 2 16 -2 12 -11 -3 -8 -1 -18 5 -22 16
-10 13 -28 -4 -21 -8 3 -19 -2 -24 -12 -9 -16 -10 -16 -16 1 -4 9 -14 17 -23
17 -12 0 -13 3 -4 12 7 7 12 20 12 31 0 12 4 16 13 10 6 -4 20 -6 29 -5z m52
-107 c10 -11 41 -29 69 -41 41 -18 64 -21 116 -17 38 3 58 1 50 -4 -28 -18
-140 -10 -185 13 -44 21 -96 68 -77 68 5 0 18 -9 27 -19z"/>
<path d="M868 937 c-61 -23 -126 -66 -152 -100 -34 -46 -68 -116 -62 -130 3
-8 5 -8 5 1 1 7 6 10 12 7 5 -4 18 -1 27 7 9 8 35 16 57 17 33 2 53 -6 110
-43 59 -40 76 -46 121 -46 39 0 59 6 85 25 74 54 95 65 126 65 17 0 39 -7 47
-16 23 -23 21 2 -5 51 -30 57 -86 113 -144 142 -61 32 -170 41 -227 20z m147
-110 c14 5 17 3 12 -10 -3 -9 -2 -19 3 -22 16 -10 11 -19 -15 -32 -14 -6 -25
-7 -25 -2 0 5 -10 14 -22 18 -19 8 -20 10 -7 16 11 4 15 13 11 28 -5 19 -3 20
10 9 9 -7 24 -9 33 -5z m-85 -5 c0 -4 -21 -6 -46 -4 -58 5 -125 -20 -176 -66
-43 -39 -53 -30 -10 11 43 41 110 67 175 67 31 0 57 -3 57 -8z"/>
<path d="M715 650 c52 -12 103 -50 135 -97 16 -26 30 -49 30 -52 0 -3 4 -23 9
-43 5 -22 5 -38 0 -38 -5 0 -9 10 -9 23 0 25 -33 102 -52 121 -26 25 -101 76
-114 76 -6 0 1 -14 17 -31 39 -42 44 -81 20 -158 -26 -78 -26 -95 -1 -148 13
-31 34 -52 74 -78 65 -41 80 -65 73 -111 -6 -33 -6 -33 18 -18 27 18 65 65 89
112 54 106 34 251 -49 350 -41 49 -157 102 -219 101 -44 -1 -47 -2 -21 -9z
m186 -268 c9 2 13 -4 11 -14 -2 -10 2 -18 8 -18 5 0 10 -5 10 -11 0 -6 -7 -9
-15 -5 -8 3 -19 -2 -24 -12 -9 -16 -10 -16 -16 1 -4 9 -14 17 -23 17 -12 0
-13 3 -4 12 7 7 12 21 12 31 0 16 3 17 14 8 8 -6 20 -10 27 -9z"/>
<path d="M661 559 c-1 -49 -31 -117 -72 -161 -28 -30 -89 -63 -89 -48 0 5 5
10 11 10 23 0 88 62 108 103 12 24 24 63 27 88 l5 44 -18 -34 c-30 -57 -59
-72 -149 -75 -118 -4 -173 -45 -195 -144 -12 -59 -47 -102 -84 -102 -38 0 -30
-13 23 -39 64 -32 180 -40 250 -17 68 23 144 92 179 164 23 48 28 69 27 132
-1 41 -6 86 -12 100 -10 23 -11 21 -11 -21z m-217 -203 c6 2 16 -8 23 -22 11
-23 10 -27 -7 -31 -11 -3 -20 -9 -20 -14 0 -5 -4 -9 -10 -9 -5 0 -10 7 -10 15
0 8 -7 15 -15 15 -8 0 -15 5 -15 10 0 6 5 10 10 10 6 0 10 10 10 22 0 16 3 19
11 11 6 -6 17 -10 23 -7z"/>
</g>
</svg>
