<?xml version="1.0" encoding="utf-8"?>
<!-- Generator: Adobe Illustrator 16.0.0, SVG Export Plug-In . SVG Version: 6.00 Build 0)  -->
<!DOCTYPE svg PUBLIC "-//W3C//DTD SVG 1.1//EN" "http://www.w3.org/Graphics/SVG/1.1/DTD/svg11.dtd">
<svg version="1.1" id="Calque_1" xmlns="http://www.w3.org/2000/svg" xmlns:xlink="http://www.w3.org/1999/xlink" x="0px" y="0px"
	 width="1307.559px" height="203.91px" viewBox="0 0 1307.559 203.91" enable-background="new 0 0 1307.559 203.91"
	 xml:space="preserve">
<g transform="translate(-8.000000,221.910452) scale(0.100000,-0.100000)">
	<path fill="#B40F20" d="M6540.996,2209.004c-257.998-43.008-347.998-374.004-150-547.002c20-17.002,39.004-29.004,42.002-26.006
		c2.998,4.004,2.998,28.008,0,55c-7.002,60,10,90,85,149.004c82.002,64.004,102.998,140,62.002,220
		c-27.002,54.004-25.996,95,5,125.996c25.996,26.006,30.996,35,17.998,33.008C6597.998,2217.998,6570,2214.004,6540.996,2209.004z
		 M6484.003,2009.004c-3.008-5,0-16.006,5.996-24.004c7.002-7.998,10-15,5.996-15c-15.996,0-21.992-2.998-37.998-17.002
		c-15.996-15-17.998-15-17.998,0c0,10-7.002,17.002-15,17.002s-15,5-15,10c0,5.996,5,10,10,10c5.996,0,10,5.996,10,12.998
		c0,9.004,12.002,14.004,30,15C6477.001,2017.998,6487.998,2014.004,6484.003,2009.004z M6402.001,1897.002
		c-25-47.998-22.002-151.006,5.996-204.004c30-57.002,27.998-65.996-3.994-18.994c-36.006,52.998-44.004,143.994-19.004,215
		c10,26.992,22.002,47.998,25.996,45C6415,1932.002,6410.996,1915,6402.001,1897.002z"/>
	<path fill="#B40F20" d="M5930.996,1890c-20.996-62.002-13.994-149.004,18.008-215c33.994-72.002,77.998-117.998,145.996-152.998
		c42.998-22.998,62.998-27.002,135-27.002s94.004,4.004,144.004,27.998c31.992,15,56.992,29.004,55,32.002
		c-3.008,2.002-29.004,0.996-59.004-2.998c-30-5-72.998-4.004-95,0c-40.996,8.994-142.002,75-130.996,85
		c2.998,3.994,15.996-2.998,28.994-15c55-52.002,156.006-74.004,242.002-52.002l30,7.998l-32.998,1.006
		c-77.998,2.998-122.002,45.996-146.006,142.998c-7.998,33.994-50,85-86.992,102.998c-17.002,9.004-56.006,15-99.004,15
		c-82.998,0-107.002,10-124.004,52.002l-12.998,30L5930.996,1890z M6130,1717.998c0-8.994,5-20,10-22.998
		c15-9.004,12.002-27.998-4.004-22.002c-6.992,2.998-18.994,0-25.996-5.996c-10-9.004-14.004-9.004-17.002,0.996
		c-2.998,6.006-12.002,12.002-20.996,12.002c-12.002,0-12.998,2.998-4.004,12.002C6075,1699.004,6080,1710.996,6080,1720
		s9.004,15,25,15C6122.001,1735,6130,1729.004,6130,1717.998z"/>
	<path fill="#B40F20" d="M6704.003,1885.996c-93.008-30-189.004-126.992-208.008-210.996c-5-22.002-3.994-25.996,4.004-15
		c5,7.998,10,10.996,10,5.996c0-3.994,10-1.992,22.998,6.006c12.002,7.998,40,15,62.002,17.002
		c32.998,1.992,52.998-6.006,110-43.008c57.998-37.998,77.998-45.996,117.998-45.996c49.003,0,101.005,20,127.001,50
		c37.002,42.002,99.004,52.002,132.998,22.998c19.004-17.998,20-17.002,12.998,10c-15.996,67.002-87.998,147.002-168.994,189.004
		C6874.999,1897.998,6762.998,1905.996,6704.003,1885.996z M6855,1777.002c14.003,5,17.001,2.998,12.001-10
		c-2.998-9.004-2.002-19.004,2.998-22.002c15.996-10,10.996-19.004-15-32.002c-14.004-5.996-25-7.002-25-2.002
		s-10,14.004-22.002,18.008c-18.994,7.998-20,10-7.002,15.996c11.006,4.004,15,12.998,11.006,27.998c-5,19.004-2.998,20,10,9.004
		C6830.996,1775,6845.996,1772.998,6855,1777.002z M6770,1772.002c0-4.004-17.998-6.006-39.004-4.004
		c-55,5-135.996-23.994-181.992-65c-44.004-40-54.004-30.996-11.006,9.004c49.004,45.996,102.002,67.002,170,67.998
		C6742.001,1780,6770,1777.002,6770,1772.002z"/>
	<path fill="#B40F20" d="M2755,1770c16.001-7.002,12.002-9.004-20-9.004c-47.002-0.996-146.001-25.996-153.999-38.994
		c-3.003-5-23.999-19.004-46.001-31.006C2512.998,1680,2498.999,1670,2502.998,1670c8.003,0-18.999-35-50-62.002
		c-10.996-10.996-23.999-35.996-27.998-55.996c-5-22.002-10-31.006-12.998-22.002c-8.003,22.998-31.001-87.998-32.002-152.998
		c0-64.004,17.002-147.002,31.001-147.002c5,0,8.999-5.996,8.999-14.004c0-30.996,55-103.994,116.001-155.996
		c36.997-30,46.001-22.002,37.998,35.996c-8.999,77.002,2.002,120,41.001,160c18.999,19.004,38.999,34.004,43.999,34.004
		c18.003,0,91.001,74.004,91.001,92.002c0,10.996,3.999,17.002,8.999,13.994c23.003-13.994,28.999,135,6.001,157.002
		c-42.998,42.998-42.998,169.004-1.001,187.998c31.001,15,28.999,39.004-2.998,38.008
		C2737.002,1779.004,2737.002,1777.998,2755,1770z M2591.001,1517.998c0-10,1.997-10,6.001,0c1.997,6.006,13.999,12.002,25,12.002
		c13.999,0,17.998-5,13.999-15.996c-3.999-9.004-1.001-23.008,5-31.006c12.998-15,6.997-25.996-18.999-28.994
		c-9.004-2.002-18.003-8.008-20-13.008c-5-15.996-22.002-12.998-22.002,4.004c0,7.998-8.999,15-20,15s-20,7.002-20,15
		s7.002,15,15,15s15,9.004,15,20C2570,1530.996,2588.999,1537.998,2591.001,1517.998z M2527.998,1355.996
		c-6.997-30.996-15.996-55.996-20-55.996c-5,0-7.998-25-7.998-57.002c0-30.996,2.998-52.998,7.002-48.994
		c3.999,2.998,15-21.006,25-54.004s22.998-60,27.998-60c6.001,0,10-5.996,10-12.002c-1.001-10.996-13.999,2.002-61.001,59.004
		c-5,7.002-11.997,42.002-16.001,77.002c-5.996,71.992,5,185.996,17.002,166.992c3.999-7.998,10-0.996,13.999,20
		c3.003,18.008,8.999,30,12.002,27.002C2538.999,1414.004,2536.001,1387.002,2527.998,1355.996z"/>
	<path fill="#B40F20" d="M10504.999,1680c4.004-5.996-7.998-10-27.002-10c-45.996,0-142.002-25.996-145.996-39.004
		c-2.002-5.996-10-10.996-17.002-10.996c-7.998,0-22.002-10.996-32.998-25c-11.006-14.004-25-25-31.006-25
		c-5.996,0-10.996-2.998-10.996-7.002c0-5-14.004-23.994-30-42.998s-30-40-30-47.002c0-5.996-7.002-17.998-15-27.002
		c-19.004-17.998-35-100-35-170c0.996-57.998,22.998-150,32.998-140c4.004,4.004,7.002,1.006,7.002-7.998
		c0-20.996,30-77.998,40-77.998c5,0,15.996-12.998,25-30c9.004-15.996,22.002-30,29.004-30c6.992,0,20-10,27.998-22.002
		c22.998-35,38.994-13.994,32.002,42.002c-9.004,70.996,1.992,112.998,41.992,154.004c19.004,20,39.004,35.996,44.004,35.996
		c14.004,0,90,72.002,90,85.996c0,7.002,5,14.004,10,16.006c5.996,2.002,12.998,25.996,15.996,55
		c7.002,55.996-1.992,127.002-15,118.994c-10-5.996-30.996,61.006-30.996,97.002c0,37.002,20,76.006,42.002,82.002
		c25,7.998,22.998,35-2.998,35C10507.997,1690,10502.001,1685.996,10504.999,1680z M10387.001,1427.998
		c-2.998-12.002-2.002-27.998,2.002-37.002c6.992-11.992,0.996-20-25-31.992c-28.008-13.008-34.004-14.004-34.004-3.008
		c0,8.008-7.998,14.004-17.998,14.004s-19.004,7.002-19.004,15s6.006,15,14.004,15c7.002,0,12.998,9.004,12.998,20s5,20,10,20
		c5.996,0,10-5.996,10-12.002c0-8.994,4.004-7.998,10,2.002c5,7.998,10,10.996,10,5.996c0-5.996,5-5,12.002,2.002
		C10389.003,1455,10392.997,1452.998,10387.001,1427.998z M10277.997,1270.996c-5.996-27.998-15-50.996-20-50.996
		c-3.994,0-7.998-27.998-7.998-62.002c0-45,2.998-58.994,10-47.998c7.998,12.002,10,10.996,10-5.996c0-30,30-114.004,40.996-114.004
		c5,0,9.004-7.002,9.004-15.996c0-23.008-27.002,0-35.996,28.994c-3.008,12.002-13.008,30-22.002,40
		c-11.006,12.002-17.002,45-20,102.998c-4.004,75-2.002,91.006,18.994,133.008c13.008,26.992,25,46.992,27.002,45.996
		C10289.003,1324.004,10284.999,1300,10277.997,1270.996z"/>
	<path fill="#B40F20" d="M5645,1605.996c-82.002-35-104.004-151.992-40.996-215L5630,1365v30.996c0,22.002,9.004,39.004,35,61.006
		c35.996,32.002,45,70.996,25.996,102.002c-5.996,7.998-5.996,23.994,0,37.998C5700.996,1624.004,5690.996,1625.996,5645,1605.996z
		 M5652.001,1525c0-5-5-10.996-11.006-12.998C5635,1510,5630,1515.996,5630,1525s5,15,10.996,12.998
		C5647.001,1535.996,5652.001,1530,5652.001,1525z"/>
	<path fill="#B40F20" d="M7352.001,1600c-39.004-24.004-72.002-75-72.002-112.998c0-37.002,27.002-95,50-107.002
		c14.004-7.998,15.996-5,12.998,15c-3.994,17.002,5,32.002,32.998,59.004c30,27.998,37.002,40.996,35,67.998
		c-0.996,17.998-2.998,47.998-2.998,65.996C7405.995,1625,7397.001,1627.002,7352.001,1600z M7367.997,1522.002
		c2.002-7.002-2.998-12.002-12.002-12.002c-8.994,0-15.996,7.002-15.996,15.996C7339.999,1542.998,7362.001,1540,7367.997,1522.002z
		"/>
	<path fill="#B40F20" d="M6530,1602.002c0-5,12.998-17.998,30-30c45.996-35,55.996-87.998,30.996-172.002
		C6565,1317.002,6565,1305.996,6590,1252.998c12.998-30.996,34.004-52.002,74.004-77.998c65-40.996,80-65,72.998-110.996
		c-6.006-33.008-5-33.008,15.996-19.004c32.002,20.996,76.006,79.004,99.004,132.998c25,55,28.994,156.006,8.994,217.002
		c-28.994,85.996-115.996,170.996-210,202.998C6612.001,1612.002,6530,1614.004,6530,1602.002z M6622.998,1567.002
		c26.006-19.004,44.004-36.006,41.006-40c-3.008-2.998-15,2.998-26.006,12.998c-12.002,10.996-38.994,27.998-62.002,39.004
		c-28.994,13.994-35,20-20,20.996C6567.001,1600,6597.998,1585,6622.998,1567.002z M6710.996,1465.996
		c10-21.992,18.008-53.994,18.008-70.996c0-25-2.002-22.002-13.008,17.002c-6.992,25-20,57.998-28.994,72.002
		c-20,28.994-22.002,40-6.006,30C6687.001,1510.996,6700.996,1489.004,6710.996,1465.996z M6745,1337.002
		c15,5,17.002,2.998,10.996-12.002c-3.994-10.996-1.992-22.002,6.006-27.002c10-5.996,7.002-10-9.004-13.994
		C6740,1280,6730,1272.998,6730,1265.996c0-5.996-5-2.998-10.996,7.002c-5,9.004-17.002,17.002-26.006,17.002
		c-12.002,0-12.998,2.998-3.994,14.004c5.996,7.998,10.996,17.998,10,21.992c-3.008,20,1.992,26.006,15,15
		C6720.996,1335,6735.996,1332.998,6745,1337.002z"/>
	<path fill="#B40F20" d="M6480,1530.996c0-25-37.002-70-69.004-82.998c-13.994-5.996-56.992-12.002-95.996-12.998
		c-115.996-2.998-159.004-40.996-194.004-172.002c-11.992-43.994-46.992-72.998-87.998-72.998c-15,0-13.994-4.004,7.002-20
		c64.004-50,194.004-65,284.004-32.998c98.994,35.996,185,145,200.996,253.994c4.004,27.002,2.002,71.006-5.996,105L6505.996,1555
		l-6.992-57.998c-4.004-41.006-16.006-71.006-39.004-105c-30-44.004-105.996-110-115.996-100
		c-2.002,2.998,12.998,17.002,33.994,32.002c44.004,30,74.004,67.998,94.004,116.992C6485.996,1475,6495,1550,6485,1550
		C6482.001,1550,6480,1542.002,6480,1530.996z M6300,1292.998c0-5.996,2.998-18.994,7.002-28.994c5-13.008,2.998-16.006-10-11.006
		c-11.006,4.004-17.002,1.006-17.002-7.998c0-7.998-4.004-15-10-15c-5,0-10,7.002-10,15s-7.002,15-15,15s-15,5-15,10
		c0,5.996,5,10,10,10c5.996,0,10,5.996,10,14.004c0,8.994,10,12.998,25,11.992C6289.003,1305.996,6300,1300,6300,1292.998z"/>
	<path fill="#B40F20" d="M5410,1442.998c0-97.002,115.996-165,200-117.998l25,12.998l-27.998,7.002
		c-21.006,5.996-34.004,19.004-47.002,50.996C5539.003,1445,5515.996,1460,5465.996,1460c-20,0-35.996,5-35.996,10
		c0,5.996-4.004,10-10,10C5415,1480,5410,1462.998,5410,1442.998z M5500,1394.004c0-17.002-22.002-14.004-27.998,3.994
		C5470,1405,5475,1410,5484.003,1410C5492.998,1410,5500,1402.998,5500,1394.004z"/>
	<path fill="#B40F20" d="M5712.998,1460c-30-17.998-52.998-47.002-52.998-67.998c0-5,14.004-7.002,30-4.004
		c19.004,2.998,40.996-2.998,57.998-13.994c32.998-22.002,76.006-20,107.998,5c15,11.992,33.008,16.992,46.006,12.998l22.002-5
		l-22.002,30c-12.002,17.002-32.998,37.998-46.006,47.002C5822.001,1485.996,5752.001,1484.004,5712.998,1460z M5817.998,1417.998
		c-5.996-17.998-27.998-20.996-27.998-3.994c0,8.994,7.002,15.996,15.996,15.996C5815,1430,5820,1425,5817.998,1417.998z"/>
	<path fill="#B40F20" d="M7124.999,1467.002c-12.002-27.998,10.996-90,45-122.002c27.002-25.996,39.004-30,89.004-30
		c36.992,0,65,5,75.996,15c17.002,14.004,17.002,15-10,20c-20.996,4.004-34.004,17.002-52.002,50c-28.994,54.004-37.002,60-90,60
		c-23.994,0-42.998,5-45.996,12.998S7129.999,1479.004,7124.999,1467.002z M7210.995,1397.002c-0.996-12.002-15-9.004-18.994,3.994
		c-2.998,6.006,0.996,10,7.998,8.008C7205.995,1405.996,7210.995,1400.996,7210.995,1397.002z"/>
	<path fill="#B40F20" d="M7434.003,1460.996c-36.006-21.992-64.004-57.998-64.004-80.996c0-9.004,2.998-10.996,7.998-4.004
		c14.004,22.002,51.006,22.002,77.998,1.006c35-27.002,73.008-26.006,112.002,2.998c26.006,19.004,34.004,20.996,47.002,10
		c19.004-15.996,19.004-7.002-0.996,30.996C7585.995,1477.002,7492.997,1497.002,7434.003,1460.996z M7529.999,1415
		c0-7.998-4.004-15-9.004-15c-12.998,0-21.992,15.996-13.994,24.004C7517.997,1435,7529.999,1430,7529.999,1415z"/>
	<path fill="#B40F20" d="M1951.001,1390.996C1922.002,1372.002,1928.999,1100,1960,1100c3.999,0,12.002-12.998,17.998-27.998
		c5-16.006,16.001-35,24.004-42.998c6.997-8.008,22.998-27.002,35.996-43.008C2050,970,2060,960,2060,962.998s11.001-5,25-17.998
		c12.998-14.004,31.001-25,40-25c7.998,0,15-4.004,15-9.004c0-15,113.999-40.996,181.001-40.996
		c66.001,0,167.998,22.002,177.998,37.998c3.003,5,16.001,12.002,28.999,16.006c45,15,20,20.996-67.998,17.998
		c-85-4.004-93.999-2.002-150,27.002C2251.001,1000,2190,1050,2212.998,1050c7.002,0,28.003-14.004,47.002-30.996
		c18.999-16.006,52.998-35,76.001-41.006c23.999-7.002,41.001-15,37.998-20c-8.999-13.994,141.001-8.994,155,5
		c10,10,15,7.998,25-5.996c13.003-17.002,13.999-17.002,18.003,0c3.999,15-3.003,17.998-36.001,20.996
		c-50,2.998-106.001,20-106.001,32.002c0,5-8.999,17.002-20,27.998c-11.001,10-25,41.006-32.998,70
		c-7.002,29.004-16.001,50-19.004,47.002c-2.998-2.998-7.998,9.004-11.997,25.996C2338.999,1217.002,2285,1275,2245,1290
		c-15,5.996-70,10-123.999,10c-110,0-133.003,10-148.003,67.998C1967.002,1390.996,1961.001,1397.002,1951.001,1390.996z
		 M2192.002,1165c0-5,1.997-15.996,1.997-22.998C2195,1135,2202.002,1125,2210,1120c16.001-10,10-20-15-24.004
		c-8.999-0.996-20-6.992-22.998-11.992c-12.002-15-32.002-15-32.002,0.996c0,7.998-8.999,15-20,15s-20,7.002-20,15s7.002,15,15,15
		c8.999,0,15,9.004,15,22.998c0,17.998,6.001,22.002,30,22.002C2177.002,1175,2191.001,1170.996,2192.002,1165z"/>
	<path fill="#B40F20" d="M2945,1370c2.998-5-2.002-10-12.002-10c-23.999,0-92.998-25-101.997-35.996
		c-3.003-5-23.999-18.008-45-29.004c-22.002-10.996-41.001-27.998-43.999-37.002c-2.002-10-12.002-20-21.001-22.998
		c-16.001-5-41.001-47.998-41.001-70.996c0-7.002-6.001-17.002-13.999-21.006c-7.002-3.994-17.002-23.994-21.001-42.998l-7.002-35
		l24.004,32.002c43.999,57.998,75.996,85,120,97.998c23.999,7.998,35.996,14.004,27.998,15s-3.999,5.996,10,10
		c32.998,10,167.002,12.002,173.999,2.002c2.002-4.004-30-6.006-71.997-4.004c-43.003,2.002-74.004,1.006-69.004-3.994
		c4.004-4.004-20-16.006-52.998-26.006c-32.998-10.996-57.998-22.998-56.001-27.002c3.003-3.994-6.001-13.994-18.999-20.996
		c-26.001-14.004-62.002-60-47.002-60c4.004,0,18.003,9.004,29.004,20c15,14.004,22.998,15.996,25.996,7.002
		c4.004-9.004,6.001-9.004,6.001,0.996c1.001,12.998,91.001,17.998,91.001,4.004c0-5,17.998-16.006,41.001-26.006
		c21.997-10,51.997-28.994,66.001-41.992c13.999-13.008,31.997-24.004,38.999-24.004c7.998,0,13.999-4.004,13.999-10
		s30-10,71.001-10c43.999,0,67.998,4.004,63.999,10c-2.998,5.996,2.002,10,12.002,10s31.997,9.004,47.998,20
		c17.002,10.996,26.001,20,21.001,20s2.998,9.004,16.997,20c14.004,10.996,33.003,20,42.002,20s12.998,5,10,10
		c-3.999,5.996,11.001,10,36.001,10c30,0,50-5.996,66.001-22.002c15.996-15,22.998-17.002,22.998-7.998
		c0,22.998-32.002,100-41.001,100c-5,0-8.999,5-8.999,12.002c0,15-82.002,97.998-97.002,97.998c-6.997,0-15.996,5.996-20,14.004
		c-8.999,15-91.997,45.996-123.999,45.996c-11.001,0-16.997,5-13.999,10c3.999,5.996-22.998,10-75,10
		C2967.998,1380,2941.001,1375.996,2945,1370z M3102.998,1230.996c14.004,8.008,17.002,6.006,17.002-10.996
		c0-10.996-6.001-20-12.002-20c-6.997,0-5-5,5-10.996C3136,1175,3135,1150,3110,1150c-10,0-23.999-7.998-28.999-17.002
		c-10-17.002-10-17.002-11.001,0c0,10-3.999,15-10,12.002c-5-2.998-10,0.996-10,9.004c0,8.994-7.002,15.996-15,15.996
		c-11.001,0-12.998,4.004-6.001,17.998c5,9.004,12.002,25,15,35c3.999,14.004,10,16.006,23.999,7.998
		C3078.999,1225,3092.001,1225,3102.998,1230.996z"/>
	<path fill="#B40F20" d="M5675.996,1352.998c25-17.998,34.004-50,23.008-82.002c-15-42.998-4.004-78.994,30.996-98.994
		c17.002-9.004,30-25,30-34.004c0-27.998,17.998-20.996,40,15c49.004,79.004-2.998,184.004-100,202.002
		C5680.996,1357.998,5670,1357.998,5675.996,1352.998z M5770,1224.004c0-9.004-5-14.004-12.002-12.002
		c-17.998,5.996-20.996,27.998-3.994,27.998C5762.998,1240,5770,1232.998,5770,1224.004z"/>
	<path fill="#B40F20" d="M7404.003,1337.998c11.992-17.002,13.994-35.996,8.994-75.996c-5.996-52.998-5-55,31.006-87.998
		c25.996-24.004,35.996-40,31.992-52.002c-2.998-9.004,7.002-2.002,24.004,15.996c40.996,44.004,44.004,102.002,7.998,161.006
		c-20,31.992-68.994,60.996-102.998,60.996C7389.999,1360,7389.999,1357.998,7404.003,1337.998z M7479.999,1225
		c0-7.998-4.004-15-10-15c-5,0-10,7.002-10,15s5,15,10,15C7475.995,1240,7479.999,1232.998,7479.999,1225z"/>
	<path fill="#B40F20" d="M5632.998,1302.998C5619.003,1289.004,5599.003,1280,5580,1280c-47.002,0-67.998-15.996-80-60
		c-7.002-27.002-17.002-40-27.998-40c-37.002-0.996,22.002-30,60-30c50.996,0,90.996,22.002,117.002,62.998
		C5685.996,1272.998,5672.998,1344.004,5632.998,1302.998z M5572.001,1215c0-5-5-10.996-11.006-12.998
		C5555,1200,5550,1205.996,5550,1215s5,15,10.996,12.998C5567.001,1225.996,5572.001,1220,5572.001,1215z"/>
	<path fill="#B40F20" d="M7362.001,1312.998c-7.998-13.994-26.006-23.994-50-27.998c-62.002-10-81.006-22.998-97.998-65
		c-10-24.004-23.008-40-33.008-40c-13.994-0.996-12.998-2.998,3.008-15c10.996-7.998,40-15,65.996-15
		c82.998,0,139.004,67.002,127.998,155.996C7374.999,1335,7374.999,1335,7362.001,1312.998z M7289.999,1214.004
		c0-9.004-5-14.004-12.002-12.002c-17.998,5.996-20.996,27.998-3.994,27.998C7282.997,1230,7289.999,1222.998,7289.999,1214.004z"/>
	<path d="M4022.001,1307.998c3.999-10,155.996-12.998,710.996-15c391.006-0.996,707.002,1.006,707.002,6.006
		s-7.002,11.992-15.996,15c-9.004,2.998-328.008,5.996-711.006,5.996C4162.001,1320,4018.999,1317.002,4022.001,1307.998z"/>
	<path d="M5840,1310c0-15,57.002-20.996,154.004-17.998c60,2.002,90.996,7.002,93.994,15.996
		c2.998,9.004-25.996,12.002-122.002,12.002C5892.998,1320,5840,1315.996,5840,1310z"/>
	<path d="M6914.999,1310.996c-9.004-15.996,7.002-18.994,127.998-17.998c97.998,0,115,2.002,106.006,12.998
		C7135.995,1322.002,6924.999,1325.996,6914.999,1310.996z"/>
	<path d="M7554.999,1310.996c-2.998-5.996,9.004-12.998,27.002-15.996s347.998-5,732.002-2.998
		c547.998,2.002,700,5.996,703.994,15.996c2.998,9.004-147.002,12.002-727.002,12.002
		C7840.995,1320,7559.003,1315.996,7554.999,1310.996z"/>
	<path fill="#B40F20" d="M9694.999,1300c-14.004-22.998-17.002-170-5-234.004c7.002-36.992,15-63.994,17.998-60.996
		c2.998,2.002,12.998-12.998,22.998-35s23.008-40,29.004-40c5,0,10-5,10-10.996c0-15,25.996-39.004,42.002-39.004
		c10,0,8.994-2.998-2.002-10c-10-7.002-10.996-10-2.002-10c7.002,0,30-10.996,51.006-24.004c85.996-55,225-70.996,331.992-40
		c30,9.004,56.006,19.004,59.004,23.008c2.998,3.994,19.004,12.998,37.002,20c32.998,12.998,50.996,37.998,27.002,37.998
		c-7.002,0-11.006-4.004-9.004-7.998c14.004-21.006-195-28.008-217.002-6.006c-7.002,7.002-27.002,19.004-45,26.006
		c-37.998,15-97.998,70-87.998,78.994c4.004,4.004,15-2.998,25-15c10-12.998,22.998-22.998,29.004-22.998
		c5.996,0,10.996-4.004,10.996-9.004c0-10,77.002-40.996,105-41.992c20,0,20-1.006,0-9.004c-12.998-5.996,7.002-9.004,60.996-9.004
		c58.008-0.996,85,3.008,93.008,13.008c8.994,10.996,2.998,15-33.008,20c-30.996,5-51.992,15-63.994,30.996
		c-11.006,12.998-22.002,22.002-25,19.004c-6.006-6.006-37.002,88.994-37.002,112.998c0,7.998-4.004,12.002-9.004,8.994
		c-5-2.998-10.996,8.008-15,26.006c-5.996,32.002-55,87.002-90.996,102.998c-10.996,5-70,10.996-130.996,14.004
		c-104.004,5.996-113.008,7.998-133.008,30.996c-10.996,14.004-20,32.998-20.996,42.002
		C9719.999,1302.998,9704.003,1314.004,9694.999,1300z M9904.003,1069.004c-3.008-5-1.006-9.004,3.994-9.004
		c6.006,0,12.998,7.002,16.006,15.996c7.998,22.002,27.998,6.006,20.996-16.992c-4.004-12.002-0.996-21.006,9.004-25
		c22.998-9.004,20-34.004-4.004-29.004c-10.996,2.002-24.004-4.004-30-12.998c-9.004-16.006-10.996-16.006-24.004,0.996
		c-6.992,9.004-20.996,17.002-30,17.002c-20,0-20.996,19.004-0.996,25.996c7.998,4.004,15,17.002,15,30
		c0,17.002,4.004,22.002,15,18.008C9902.997,1080,9907.001,1074.004,9904.003,1069.004z"/>
	<path fill="#B40F20" d="M1282.998,1292.998c-12.998-2.002-22.998-8.994-22.998-13.994s-6.001-9.004-13.999-9.004
		c-20,0-63.999-45-72.002-74.004c-2.998-13.994-10-22.998-15-20c-5,3.008-8.999-13.994-10-37.998
		c-1.997-72.998,2.002-112.998,12.002-115.996c5-2.002,8.999-10,8.999-17.002s15-27.998,32.998-45.996L1235,925.997l2.998,47.002
		c2.002,27.002,7.002,45,13.003,42.002c5-4.004,8.999-0.996,8.999,5.996c0,18.008,47.998,59.004,52.998,46.006
		c3.003-7.002,8.003,0,12.002,15.996c3.999,15,11.001,27.002,16.001,27.002c12.998,0,11.001,87.998-2.002,92.002
		c-16.997,5.996-15,77.998,1.001,88.994c11.001,6.006,8.999,8.008-10,7.002C1316.001,1297.998,1295,1295,1282.998,1292.998z
		 M1273.999,1174.004c8.999-3.008,16.001-10,16.001-16.006c0-5-3.999-7.002-8.999-3.994c-5,2.998-12.002-2.002-15-11.006
		c-6.001-15-8.003-15-23.003-0.996C1217.998,1167.002,1237.998,1187.998,1273.999,1174.004z"/>
	<path fill="#B40F20" d="M10694.003,1282.002c2.998-5-18.008-14.004-47.002-21.006c-29.004-6.992-56.006-17.998-62.002-25
		c-5-5.996-27.002-20-47.998-30.996c-21.006-10.996-47.002-32.998-57.002-50c-10.996-15.996-20-25-20-20c0,15-30-45-30-60.996
		c0-7.002-5.996-17.002-14.004-21.006c-6.992-3.994-15.996-23.994-20-42.998c-2.998-19.004-2.998-29.004,0-22.002
		c3.008,6.006,9.004,10,14.004,7.002c12.002-7.002,60,15.996,60,29.004c0,5.996,5,3.994,10-4.004c5.996-10,10-10.996,10-2.002
		c0,7.998,15.996,12.002,45,12.002c25,0,45-4.004,45-9.004s14.004-11.992,30-15.996c17.002-4.004,30-10.996,30-15.996
		s7.002-9.004,15-9.004s15-5,15-10c0-5.996,15.996-17.998,35-27.002c19.004-8.994,35-20,35-25c0-3.994,32.002-7.998,70-7.998
		c39.004,0,70,2.998,70,7.998c0,4.004,20,16.006,42.998,26.006c24.004,10,47.998,27.998,52.998,40
		c5,11.992,19.004,21.992,32.002,23.994c12.002,2.002,20,7.998,17.002,12.998c-4.004,5,15.996,9.004,45,9.004
		c27.998,0,49.004-4.004,45.996-7.998c-1.992-4.004,4.004-12.998,15-20c16.006-10,19.004-10,19.004,2.998
		c0,22.998-30.996,95-40.996,95c-5,0-9.004,5.996-9.004,12.998c0,12.002-70,81.006-120.996,120
		c-13.008,9.004-49.004,22.002-81.006,29.004c-30.996,5.996-55,15-52.002,20c3.008,3.994-30.996,7.998-75.996,7.998
		S10690.995,1285.996,10694.003,1282.002z M10739.999,1132.002c0-4.004-32.002-6.006-70.996-4.004c-45,2.998-69.004,1.006-66.006-5
		c4.004-5.996-20.996-17.002-53.994-27.002c-33.008-8.994-57.002-20.996-54.004-25.996c2.998-5.996,2.002-10-4.004-10
		c-5,0-22.998-14.004-40-30.996c-16.992-17.002-30.996-25-30.996-19.004c0,17.002,77.002,90,94.004,90
		c7.998,0,20.996,5.996,28.994,14.004c7.002,7.998,25,15.996,37.998,18.994C10622.997,1140.996,10739.999,1140,10739.999,1132.002z
		 M10869.999,1124.004c0-8.008-4.004-14.004-10-14.004c-5,0-10-4.004-10-10c0-5,5-9.004,12.002-7.002
		c5.996,1.006,13.994-5.996,15.996-15c2.002-12.998-2.998-17.998-17.002-17.998c-10.996,0-22.998-4.004-25.996-10
		c-2.998-5-17.002,0.996-32.002,15.996s-22.002,29.004-15.996,33.008c5.996,2.998,8.994,12.998,7.998,21.992
		c-2.002,13.008,5.996,16.006,35.996,16.006C10857.001,1137.002,10869.999,1132.998,10869.999,1124.004z"/>
	<path fill="#B40F20" d="M11892.997,1202.002c-12.998-2.002-22.998-7.998-22.998-12.998s-5.996-9.004-14.004-9.004
		c-20.996,0-75.996-59.004-75.996-80.996c0-11.006-4.004-17.002-10-14.004c-5.996,4.004-10-9.004-10.996-32.002
		c-2.002-72.002,2.998-117.998,11.992-120.996c5-2.002,9.004-10,9.004-17.002s15-27.998,32.998-45.996l32.002-33.008l2.998,44.004
		c2.998,45,37.002,90,66.006,90c7.998,0,16.992,10.996,20,25c3.994,14.004,10.996,22.998,15.996,20c5.996-4.004,10,14.004,10,45
		c0,32.002-4.004,49.004-10,45c-10-5.996-14.004,15.996-12.002,64.004c1.006,13.994,7.002,27.998,14.004,32.998
		C11964.999,1210,11944.999,1210,11892.997,1202.002z M11889.999,1080c12.998-9.004,12.998-10.996,0-20
		c-27.998-17.998-60-4.004-45,20C11852.997,1092.998,11870.995,1092.998,11889.999,1080z"/>
	<path fill="#B40F20" d="M315,1115.996C231.001,1079.004,208.999,962.002,275,900l25-22.998v28.994c0,22.002,10,39.004,35,61.006
		c36.001,32.002,42.998,63.994,26.001,107.998c-5,10.996-3.999,27.998,1.001,37.998C372.998,1134.004,357.998,1135,315,1115.996z
		 M322.002,1035c0-5-5-10.996-11.001-12.998S300,1025.996,300,1035s5,15,11.001,12.998S322.002,1040,322.002,1035z"/>
	<path fill="#B40F20" d="M910,1045c0-30,3.999-55,8.999-55s11.001-19.004,15-42.002c5-27.998,10-37.998,15-28.994
		c6.001,8.994,10,5.996,15-12.002c3.003-14.004,16.001-29.004,28.999-32.998c12.002-4.004,25-12.002,29.004-18.008
		c3.999-6.992,40-10.996,90.996-10.996c66.001,0,87.002,4.004,101.001,17.998C1230,877.998,1230,880,1215,880
		c-8.999,0-13.999,4.004-11.001,9.004c3.003,5-8.999,10.996-26.997,15c-22.002,5-28.003,8.994-19.004,15
		c11.001,6.992,11.001,8.994-1.997,13.994c-10,4.004-16.001,17.998-16.001,37.002c0,17.998-3.999,29.004-10,25
		c-5-2.998-10,0-10,7.002c0,28.994-43.999,52.998-100,55c-30,0-61.001,2.002-67.002,2.002c-6.997,0.996-12.998,6.992-12.998,15
		c0,7.998-7.002,15.996-15,20C912.998,1097.998,910,1089.004,910,1045z M1052.002,965c-5-29.004-17.002-32.002-38.003-10
		c-8.999,9.004-11.001,15-3.999,15c6.001,0,7.998,5,5,10c-2.998,5.996,3.999,10,17.998,10
		C1052.998,990,1056.001,985.996,1052.002,965z"/>
	<path fill="#B40F20" d="M1397.998,1082.998c-10-2.002-17.998-8.994-17.998-13.994s-6.001-9.004-13.999-9.004
		C1340,1060,1300,1012.002,1295,972.998c-2.998-20.996-2.002-32.998,2.002-25.996c12.998,18.994,110,22.002,97.998,2.998
		c-2.998-5,1.001-10,8.999-10c8.003,0,22.002-7.002,31.001-17.002c11.001-10.996,32.998-15.996,65-15.996
		c40,0.996,53.999,5.996,75,28.994c21.001,22.002,33.999,28.008,67.998,27.002c23.003,0,36.001,2.002,30,4.004
		C1666.001,970,1660,977.998,1660,985.996c0,8.008-7.998,14.004-17.002,15c-10,0-12.998,3.008-5.996,6.006
		c13.999,5-32.002,52.998-52.002,52.998c-7.002,0-15,7.002-18.999,15c-3.999,12.002-22.002,15-78.003,14.004
		C1447.998,1087.998,1407.002,1085.996,1397.998,1082.998z M1530,1005c0-7.998-5-15-11.001-15c-5,0-6.997-4.004-3.999-10
		c2.998-5-2.998-10-13.999-10C1485,970,1480,975.996,1480,995c0,20,5,25,25,25C1521.001,1020,1530,1014.004,1530,1005z"/>
	<path fill="#B40F20" d="M4927.001,1072.998C4922.998,1070,4920,924.004,4920,749.004c0-314.004,0-318.008,22.002-339.004
		c25.996-24.004,110.996-27.998,133.994-5.996c24.004,23.994,18.008,65-11.992,75.996c-22.002,9.004-25,15-24.004,52.998
		c0.996,22.998,0.996,156.006,0.996,295L5040,1080h-52.998C4957.001,1080,4930,1077.002,4927.001,1072.998z"/>
	<path fill="#B40F20" d="M8147.001,1072.998c-4.004-2.998-7.002-55-7.002-115V850h-65c-45.996,0-77.998-5.996-105-20
		c-140.996-72.002-160-310-32.998-407.002c37.002-27.998,68.994-32.002,197.998-23.994c17.002,0.996,47.002-1.006,67.998-5
		c20-3.008,52.998-3.008,72.002,0c32.998,6.992,35,8.994,35,45.996c0,30.996-4.004,39.004-20.996,42.002
		c-20,2.998-20,7.002-19.004,283.994c0,154.004-2.002,288.008-5.996,297.002c-5,12.998-19.004,17.002-58.008,17.002
		C8177.001,1080,8149.999,1077.002,8147.001,1072.998z M8139.999,630.997c0-60.996-4.004-111.992-9.004-115
		c-5-3.994-30-8.994-55-11.992c-36.992-5-50.996-3.008-65.996,10.996c-39.004,35-37.998,149.004,0.996,199.004
		c18.008,21.992,28.008,25.996,75,25.996h54.004V630.997z"/>
	<path fill="#B40F20" d="M7204.999,1052.998c-42.002-10-45-25.996-45-265.996c0-137.998-4.004-236.006-10-247.998
		c-7.998-15-20.996-19.004-57.998-19.004c-56.006,0-72.002-12.002-72.002-55.996c0-60,5-64.004,84.004-64.004
		c85,0,137.998,25,170,80c20,32.002,20.996,54.004,23.994,297.998c2.998,209.004,1.006,262.998-10,266.006
		C7259.003,1052.998,7224.003,1057.002,7204.999,1052.998z"/>
	<path fill="#B40F20" d="M4385.996,1034.004c-11.992-30-5.996-53.008,19.004-72.002l25-20v-270
		c0-299.004-4.004-282.002,67.998-282.002c61.006,0,64.004,5,67.998,135.996L4570,644.004l97.998-3.008
		c52.998-0.996,109.004,2.002,125,8.008c24.004,10,27.002,15,27.002,60.996c0,60,0.996,59.004-147.998,62.998L4567.998,775
		l-0.996,75l-1.006,75l147.002,2.998c144.004,2.002,147.002,2.998,152.998,26.006c3.008,12.998,4.004,37.998,2.002,56.992L4865,1045
		l-235.996,2.998C4420,1050,4392.001,1049.004,4385.996,1034.004z"/>
	<path fill="#B40F20" d="M2693.999,1002.998c2.002-8.994,8.999-18.994,17.002-20.996c16.997-6.006,60-51.006,62.998-66.006
		c1.001-5.996,6.001-21.992,10-33.994C2792.998,855,2772.002,727.998,2760,735s-22.002-77.002-13.999-122.998
		c3.999-22.998,10-39.004,15-36.006c5,3.008,8.999-1.992,8.999-10.996c0-22.002,65-84.004,101.001-97.002
		c16.001-5,26.997-12.998,23.999-17.998c-2.998-4.004,3.999-10,15-12.998c27.002-7.002,42.998-52.998,36.001-105L2940,290l22.002,20
		c11.997,10.996,30,22.002,40,25.996c10,3.008,17.998,10,17.998,15c0,9.004,7.998,20,37.002,53.008
		c15.996,18.994,42.998,85,42.998,107.998c0,10,3.999,17.002,8.999,13.994c3.999-2.998,11.001,20,13.999,50
		C3130,645,3121,737.002,3108.999,717.998c-6.001-8.994-8.999-5-8.999,12.002c0,32.002-30,110.996-40,105
		c-5-2.998-12.998,9.004-18.999,25.996c-6.001,17.002-20,33.008-31.001,36.006s-20,10.996-20,17.998s-12.998,17.998-30,25
		c-16.001,7.002-27.002,15.996-23.999,20.996c2.998,5-3.999,9.004-15,9.004s-23.003,4.004-26.001,10
		c-2.998,5-28.999,12.002-56.001,15.996c-32.998,5-46.001,10-36.997,15c7.998,5-11.001,9.004-49.004,9.004
		C2701.001,1020,2692.002,1017.002,2693.999,1002.998z M2777.998,982.998c21.001-10,46.001-25,56.001-35
		c11.001-10,22.002-17.998,25-17.998c3.003,0,15-17.998,25-40c11.001-22.002,23.003-40,27.002-40c11.001,0,28.999-69.004,27.998-105
		c-1.001-20.996-3.999-14.004-11.001,22.998C2922.998,795.997,2915,820,2910,820c-3.999,0-11.001,10.996-13.999,24.004
		C2888.999,870.997,2813.999,950,2795,950c-7.002,0-15,5.996-17.998,14.004c-3.003,6.992-23.003,17.998-44.004,23.994
		c-26.997,7.002-30.996,10-15,11.006C2731.001,1000,2757.998,992.002,2777.998,982.998z M2923.999,682.998
		c3.999-5,18.003-7.998,28.999-7.998c17.002,0,21.001-5,19.004-22.002C2970,640,2973.999,630,2978.999,630
		c6.001,0,11.001-5,11.001-10.996c0-7.002-8.999-9.004-21.001-6.006c-13.999,4.004-22.998-0.996-28.999-15.996L2931.001,575
		l-7.002,22.998C2920,610.997,2910,620,2898.999,620S2880,625,2880,630c0,5.996,5,10,10,10c6.001,0,10,10.996,10,25
		C2900,690,2910,697.002,2923.999,682.998z"/>
	<path fill="#B40F20" d="M12884.999,1005.996c-42.002-18.994-65.996-48.994-74.004-92.998c-10-50,3.008-93.994,34.004-122.998
		l25-22.998v28.994c0,22.002,10,39.004,35,61.006c35.996,32.002,42.998,63.994,25.996,107.998c-5,10.996-3.994,27.998,1.006,37.998
		C12942.997,1024.004,12927.997,1025,12884.999,1005.996z M12894.003,930.997c2.998-5-1.006-13.994-9.004-20.996
		c-12.998-10-15-9.004-15,9.004C12869.999,940,12884.003,947.002,12894.003,930.997z"/>
	<path fill="#B40F20" d="M11519.999,942.002c0-40,4.004-62.002,9.004-54.004c5,9.004,10,2.002,13.994-22.002
		c6.006-35.996,47.998-85.996,72.998-85.996c7.002,0,14.004-5.996,17.002-12.002c2.002-8.994,29.004-12.998,87.998-12.998
		c69.004,0,88.008,2.998,107.002,20c12.002,10.996,22.002,24.004,22.002,30c0,5-5,2.998-10.996-5
		c-8.008-10.996-12.002-12.002-16.006-2.002c-2.002,6.006-12.998,12.002-23.994,12.002c-10,0-19.004,5.996-19.004,14.004
		c0,7.998-7.002,15.996-15,20c-9.004,2.998-15,18.994-15.996,37.998c0,27.998-2.002,30-9.004,12.998
		c-7.998-17.998-9.004-17.998-9.004,5c-1.992,50-40,67.002-157.998,69.004c-12.998,0.996-22.998,6.992-22.998,15
		c0,7.998-7.002,15.996-15,20C11522.997,1007.998,11519.999,997.998,11519.999,942.002z M11662.001,875
		c-5-27.998-17.002-32.002-37.998-10.996c-21.006,21.992-17.002,31.992,15,33.994C11664.003,900,11667.001,897.002,11662.001,875z"
		/>
	<path fill="#B40F20" d="M12007.997,992.998c-10-2.002-17.998-7.998-17.998-12.998c0-4.004-10.996-10.996-24.004-14.004
		c-13.994-2.998-27.998-15-30.996-25.996c-4.004-10.996-10-17.998-15-15c-4.004,2.998-10-5-14.004-17.998
		c-6.992-26.006-6.992-67.002,1.006-49.004c2.998,7.002,25,12.002,60.996,12.002c37.002,0,52.002-2.998,42.998-9.004
		c-10-6.992-5-10.996,18.008-15.996c16.992-4.004,28.994-10.996,25-15.996c-5-9.004,13.994-12.002,72.998-11.006
		c22.002,0,40,9.004,57.998,27.998c20.996,23.008,34.004,28.008,65.996,27.002c35-2.002,38.008,0,24.004,12.998
		c-7.998,9.004-15,22.002-15,30c0,8.008-4.004,13.008-9.004,9.004c-5-2.998-11.992,4.004-15.996,14.004
		c-2.998,10.996-15.996,22.998-27.998,26.992c-11.006,4.004-27.002,13.008-35,20
		C12159.003,1000,12049.003,1004.004,12007.997,992.998z M12139.999,915c0-7.998-5-15-10.996-15c-5,0-7.002-4.004-4.004-10
		c2.998-5-2.998-10-14.004-10c-15.996,0-20.996,5.996-20.996,25c0,20,5,25,25,25C12130.995,930,12139.999,924.004,12139.999,915z"/>
	<path fill="#B40F20" d="M80,960.996c0-88.994,60-145,147.998-137.998c57.002,4.004,91.001,29.004,50,35
		c-25,4.004-46.997,29.004-47.998,54.004c0,27.002-48.999,58.994-86.001,55.996c-17.998-0.996-38.999,4.004-47.998,11.006
		C82.002,990.996,80,989.004,80,960.996z M170,904.004c0-17.002-22.002-14.004-27.998,3.994C140,915,145,920,153.999,920
		S170,912.998,170,904.004z"/>
	<path fill="#B40F20" d="M382.002,970C363.999,959.004,345,937.998,340,924.004c-12.998-34.004-12.998-37.002,6.001-26.006
		c20,11.006,52.998,4.004,76.997-15.996c24.004-21.006,70-19.004,101.001,5c17.002,12.998,33.999,18.994,48.003,15l21.997-5
		l-21.997,30C560,944.004,538.999,965,526.001,974.004C491.001,995.996,422.002,994.004,382.002,970z M487.998,927.998
		C482.002,910,460,907.002,460,924.004c0,8.994,7.002,15.996,16.001,15.996S490,935,487.998,927.998z"/>
	<path fill="#B40F20" d="M2650,887.998c-1.001-55.996-17.002-113.994-41.001-142.998c-60-72.998-141.001-135.996-156.997-120.996
		c-3.003,2.998,3.999,8.994,13.999,12.998c37.998,13.994,118.999,90.996,127.998,120.996C2597.998,770,2605,780,2608.999,780
		c10,0,22.002,50,26.001,110c2.002,25,1.001,35-2.002,22.002c-1.997-12.998-10.996-26.006-18.999-29.004
		C2606.001,880,2600,872.002,2600,865c0-17.002-32.998-45-53.999-45c-8.999,0-13.999-4.004-11.001-10
		c7.002-10.996-12.002-12.998-120-14.004c-77.998-0.996-161.001-30-171.001-57.998c-2.998-10-10-17.998-15-17.998
		s-8.999-9.004-8.999-20.996c0-11.006-3.999-18.008-8.999-14.004c-6.001,2.998-13.003-10.996-16.001-32.002
		C2185,592.002,2167.998,530,2161.001,530c-3.999,0-17.002-9.004-28.003-19.004C2122.002,500,2095,490,2073.999,487.998
		L2035,484.004l32.998-13.008c18.003-6.992,30-15.996,27.002-18.994C2082.002,439.004,2218.999,410,2293.999,410
		c80,0,200,25.996,191.001,40.996c-2.998,4.004,5,11.006,17.002,14.004c31.997,9.004,135.996,122.998,142.998,157.002
		c3.999,15,10,25.996,15,22.998c3.999-2.998,12.998,25,20,60.996c11.001,60,8.999,149.004-7.002,212.002
		C2662.998,957.998,2650,940.996,2650,887.998z M2392.002,637.998c13.999,2.998,16.997,0,11.997-12.002
		c-2.998-8.994-1.997-15.996,3.003-15.996s8.999-9.004,10-20c0.996-14.004-4.004-20-18.003-20c-10,0-18.999-5.996-18.999-12.998
		c0-7.998-7.002-14.004-15-14.004s-15,9.004-15,19.004S2342.998,580,2335,580s-15,7.002-15,15s5,15,10,15c6.001,0,10,9.004,10,20
		c0,17.002,3.999,19.004,16.001,12.002C2365,637.002,2381.001,635,2392.002,637.998z"/>
	<path fill="#B40F20" d="M10439.999,920c0-5,9.004-10,20-10c27.998,0,100.996-30.996,122.002-52.002
		c10-10,20.996-17.998,25.996-17.998c4.004,0,16.006-17.998,26.006-40c10.996-22.002,22.998-40,26.992-40
		c11.006,0,29.004-67.998,28.008-105c-1.006-22.002-4.004-15.996-13.008,22.998c-5.996,30-13.994,51.006-16.992,47.998
		c-4.004-3.994-9.004,6.006-12.002,21.006c-5,27.998-69.004,102.998-87.002,102.998c-5,0-17.998,9.004-27.998,20
		s-34.004,22.002-52.998,25c-27.002,4.004-30,4.004-12.002-4.004c12.002-5,23.994-18.994,27.998-30
		c2.998-11.992,10-18.994,15-15.996c9.004,5.996,30-55,30-87.002c0-30.996-22.998-117.002-30.996-112.998
		c-11.006,7.002-21.006-80-13.008-120c3.008-19.004,10-35,15-35s9.004-7.002,9.004-15.996c0-21.006,77.002-94.004,99.004-94.004
		c8.994,0,30-14.004,45.996-30.996c27.002-27.002,30-37.002,30-89.004c-0.996-32.998,2.002-55.996,5-50.996
		c2.998,3.994,19.004,15.996,35.996,25c17.002,10,39.004,33.994,49.004,51.992c10,19.004,20.996,34.004,25,34.004
		c10,0,40,75,40,100.996c0,11.006,4.004,18.008,9.004,15c10.996-6.992,20,88.008,13.994,147.002
		c-2.998,26.006-10,47.002-13.994,47.002c-5,0-9.004,7.998-9.004,19.004c0,26.992-30,95-45.996,103.994
		c-8.008,4.004-14.004,12.998-14.004,20c0,16.006-50.996,62.998-84.004,77.998c-13.994,7.002-25.996,15-25.996,20
		c0,9.004-75,39.004-100.996,39.004c-11.006,0-17.002,5-14.004,10c4.004,5.996-17.998,10-59.004,10
		C10469.003,930,10439.999,925.997,10439.999,920z M10704.003,585.997c11.992,5,15.996,0,15.996-20c0-13.994,5-25.996,10-25.996
		c5.996,0,10-5,10-10.996c0-6.006-9.004-8.008-20.996-4.004c-15,5-22.002,2.002-26.006-14.004c-2.998-10.996-8.994-17.998-13.994-15
		c-5,3.008-7.002,10-3.008,15c3.008,6.006-3.994,13.008-15.996,16.006c-12.998,3.994-19.004,10.996-15.996,20
		c2.998,7.998,5.996,22.998,5.996,33.994c0,16.006,2.998,18.008,19.004,9.004C10679.999,585,10695.995,582.998,10704.003,585.997z"
		/>
	<path fill="#B40F20" d="M1320,895c0-7.002,7.998-17.998,17.998-24.004c13.003-6.992,17.002-20.996,15-57.998
		c-0.996-25.996-5.996-48.994-11.997-50.996c-13.003-4.004-15-72.002-2.002-72.002c5,0,12.002-10.996,15-24.004
		c3.003-13.994,15-27.998,27.002-30.996c30-10,58.999-42.002,58.999-65c0-30,27.002-24.004,35,7.002
		c3.999,18.994,8.999,22.998,15,13.994c5-8.994,10,0,15,28.008c3.999,21.992,11.001,38.994,16.001,35c5-3.008,8.999,20,8.999,50.996
		s-3.999,54.004-8.999,50.996c-5-2.998-11.001,13.008-15,36.006c-3.999,22.002-8.999,37.998-13.003,35
		c-2.998-4.004-16.997,7.002-30.996,22.998c-15,17.002-32.002,30-40,30c-7.002,0-11.001,4.004-8.003,9.004
		c3.003,5-7.998,10.996-25,15C1340,914.004,1320,910.997,1320,895z M1450,710c0-12.998-7.002-20-20-20s-20,7.002-20,20
		s7.002,20,20,20S1450,722.998,1450,710z"/>
	<path fill="#B40F20" d="M12649.999,855.997c0-50.996,27.002-103.994,64.004-126.992c40-24.004,106.992-25,135.996-1.006
		l22.002,17.998l-22.002,1.006c-25,2.002-49.004,28.994-50,55c0,27.002-50.996,60-82.002,53.994c-20-3.994-32.998,0-47.998,16.006
		l-20,22.002V855.997z M12739.999,794.004c0-9.004-5-14.004-12.002-12.002c-17.998,5.996-20.996,27.998-3.994,27.998
		C12732.997,810,12739.999,802.998,12739.999,794.004z"/>
	<path fill="#B40F20" d="M12957.997,864.004c-22.998-12.002-57.998-59.004-57.998-78.008c0-2.998,10-1.992,22.998,3.008
		c25,8.994,45,5,67.998-16.006c25-20.996,73.008-18.994,105,6.006c17.002,12.998,34.004,18.994,47.002,15
		c17.998-6.006,17.002-4.004-3.994,25c-13.008,16.992-33.008,37.998-46.006,45.996
		C13064.999,884.004,12992.997,884.004,12957.997,864.004z M13057.997,817.998c-5.996-17.998-27.998-20.996-27.998-3.994
		c0,8.994,7.002,15.996,15.996,15.996C13054.999,830,13059.999,825,13057.997,817.998z"/>
	<path fill="#B40F20" d="M350,860c0-5,3.999-10,8.999-10c15,0,18.999-37.002,8.003-77.998c-9.004-32.998-8.003-44.004,5.996-66.006
		C382.998,692.002,397.002,680,405,680s17.002-10.996,21.001-25c8.999-35,20-30.996,43.999,15c41.001,80,16.001,152.002-63.999,185
		C365,872.998,350,874.004,350,860z M440,734.004c0-16.006-16.001-19.004-25-4.004c-7.998,12.998,3.999,32.002,16.001,25
		C436.001,750.997,440,742.002,440,734.004z"/>
	<path fill="#B40F20" d="M1262.998,840c-8.999-24.004-16.997-30-40-30c-21.997,0-25-2.002-12.998-10
		c11.001-7.002-2.998-10-46.001-10c-75,0-102.998-20-111.001-79.004c-2.998-21.992-8.999-37.998-13.999-35.996
		c-3.999,2.998-10-4.004-13.999-15c-2.998-10.996-12.002-20-18.999-20c-7.002,0-13.003-7.002-13.003-15c0-27.998,195-35,205-7.002
		c2.002,7.002,9.004,12.002,15,12.002c15,0,57.002,44.004,57.002,59.004c0,5.996,3.999,10.996,8.999,10.996
		c13.003,0,25,100.996,16.001,139.004C1287.002,877.998,1277.998,877.998,1262.998,840z M1150,695c0-15.996-6.001-25-15-25
		s-15,9.004-15,25s6.001,25,15,25S1150,710.997,1150,695z"/>
	<path fill="#B40F20" d="M5282.998,850c-63.994-10-120.996-59.004-152.998-132.998C5079.003,599.004,5132.001,440,5235,400
		c40-15.996,179.004-15,235,2.002c52.002,15.996,60.996,37.998,35,87.998c-14.004,27.002-20.996,30.996-42.998,25.996
		c-15-2.998-57.998-8.994-97.002-11.992c-62.002-6.006-72.998-4.004-97.002,15.996c-53.994,42.002-40,50,92.998,50
		c66.006,0,129.004,5,139.004,10c47.002,25,30.996,157.002-27.002,220.996c-25.996,28.008-45.996,40-83.994,48.008
		c-27.002,5.996-51.006,10-52.002,10C5335.996,857.998,5312.001,854.004,5282.998,850z M5385.996,742.002
		c13.008-7.998,34.004-46.006,34.004-61.006c0-6.992-32.002-10.996-85-10.996c-77.998,0-85,2.002-85,20c0,34.004,35,60,82.998,60
		C5355.996,750,5380,745.997,5385.996,742.002z"/>
	<path fill="#B40F20" d="M5617.001,850c-44.004-12.998-57.002-29.004-57.002-70.996C5560,745,5562.998,740,5582.998,740
		c22.002,0,22.002-2.002,19.004-97.002c-6.006-185.996,15-232.998,115-250.996c32.998-5,80-6.006,107.998-2.002s75,5,105.996,2.998
		C6004.003,385.997,6030,400,6030,445c0,27.998-4.004,35-20,35c-19.004,0-20,7.002-20,172.998c0,121.006-4.004,177.002-12.002,185
		C5970.996,845,5949.003,850,5929.003,850c-71.006,0-69.004,5.996-69.004-175c0-177.998,0.996-175-60.996-175
		c-67.002,0-69.004,5-69.004,170v149.004l-25.996,20C5675,860.997,5660.996,862.998,5617.001,850z"/>
	<path fill="#B40F20" d="M6115,852.998c-45.996-12.002-65.996-35-62.998-72.002c2.002-28.994,7.002-36.992,27.002-38.994
		l23.994-4.004l-5.996-158.994c-4.004-133.008-2.998-162.002,10-174.004c15-15.996,52.002-19.004,90-9.004
		c22.002,6.006,22.998,10,25,173.008L6225,735l70,5c62.002,4.004,70.996,7.998,82.002,30c35,67.998-7.998,97.998-117.002,80.996
		c-39.004-6.992-70-6.992-85.996-0.996C6147.001,860.997,6145.996,860.997,6115,852.998z"/>
	<path fill="#B40F20" d="M7584.999,850.997c-135.996-8.994-194.004-55-225-176.992c-25.996-100,20.996-223.008,100-265
		c39.004-21.006,120-25,169.004-8.008c23.994,8.008,35,8.008,45.996-0.996c14.004-12.002,117.998-10,130,2.002
		c9.004,8.994,14.004,47.998,7.998,62.998c-2.998,7.998-13.994,15-23.994,15c-18.008,0-19.004,10-19.004,180
		c0,167.002-0.996,180-19.004,190c-10.996,5-31.992,9.004-47.998,7.998C7687.997,857.002,7634.999,854.004,7584.999,850.997z
		 M7639.999,630c0-109.004,0-110.996-25.996-120c-38.008-15-90-12.002-104.004,5c-20.996,25-30.996,104.004-19.004,149.004
		c17.002,62.998,34.004,75.996,96.006,75.996h52.998V630z"/>
	<path fill="#B40F20" d="M8480.995,849.004c-110.996-34.004-175.996-180-136.992-312.002c33.994-116.006,97.998-152.998,248.994-145
		c140,7.998,167.998,28.994,131.006,98.994c-15,30-16.006,30-72.002,22.002c-99.004-13.994-152.998-8.994-174.004,17.002
		c-10,12.002-17.998,25.996-17.998,30c0,5,59.004,10,130.996,12.002c158.008,3.994,164.004,7.998,155,102.002
		c-6.992,71.992-43.994,138.994-87.998,161.992C8619.003,855.997,8525.995,862.998,8480.995,849.004z M8585.995,750
		c21.006,0,54.004-37.002,54.004-60c0-17.998-7.002-20-85.996-20h-86.006l7.002,27.002c4.004,15.996,10.996,32.998,17.002,40
		c10.996,12.998,45.996,22.002,65.996,17.002C8565.995,752.002,8577.997,750,8585.995,750z"/>
	<path fill="#B40F20" d="M10380.995,832.998c-0.996-30.996-11.992-53.994-21.992-47.002c-5,3.008-9.004-0.996-9.004-8.994
		c0-19.004-32.002-47.002-54.004-47.002c-8.994,0-15-4.004-11.992-9.004c7.998-11.992-62.002-21.992-107.002-13.994
		c-50,7.998-174.004-32.002-182.002-57.998c-4.004-11.006-10.996-19.004-15.996-19.004s-9.004-5-9.004-10.996
		c0-6.006-7.002-17.002-15-25c-7.998-9.004-15-29.004-15-46.006c0-50.996-20.996-105-45.996-118.994
		c-13.008-7.002-24.004-16.006-24.004-21.006c0-3.994-19.004-7.998-42.002-7.998l-42.998-0.996l30-16.006
		c17.002-8.994,32.002-18.994,35-22.998c12.002-17.998,120-40,195-40c87.002,0,185,22.998,197.998,45.996
		c4.004,8.008,12.998,14.004,19.004,14.004c13.994,0,87.998,72.002,87.998,85c0,5.996,9.004,15.996,19.004,22.002
		c10.996,7.002,21.992,25.996,25.996,42.998c4.004,15.996,10,27.998,14.004,25c8.994-5,30.996,92.998,30.996,137.998
		c0,49.004-20.996,157.002-30.996,157.002c-5,0-9.004-24.004-9.004-52.002c-0.996-55.996-17.002-113.994-40.996-142.998
		c-56.006-67.998-123.008-125-149.004-125c-17.002,0-10.996,17.002,7.998,24.004c47.998,17.998,112.002,73.994,112.002,100
		c0,6.992,9.004,17.998,19.004,25.996c20,14.004,47.998,135.996,37.998,162.002C10384.003,849.004,10380.995,845,10380.995,832.998z
		 M10134.999,545.997c10.996,5,15-0.996,15-21.992c0-20,2.998-25,9.004-16.006c6.992,11.006,8.994,11.006,13.994-2.002
		c4.004-10.996-0.996-17.998-17.998-21.992c-14.004-3.008-25-12.002-25-18.008c0-6.992-5.996-12.998-14.004-12.998
		c-7.998,0-15,2.998-13.994,6.006c2.002,20-4.004,30.996-17.002,30.996c-7.998,0-15,7.002-15,15s5,15,10,15
		c5.996,0,10,12.002,10,25.996c0,23.008,2.002,24.004,15,10C10114.003,547.998,10127.001,542.998,10134.999,545.997z"/>
	<path fill="#B40F20" d="M302.998,812.998C287.002,797.002,268.999,790,241.001,790C198.999,790,170,765,170,727.998
		c0-8.994-10-23.994-22.002-32.998c-20-12.998-20.996-17.002-7.998-25c26.001-17.002,102.998-10.996,137.998,10
		C312.002,700.997,340,752.002,340,792.002C340,830,327.002,837.002,302.998,812.998z M242.002,725c0-5-5-10.996-11.001-12.998
		S220,715.997,220,725s5,15,11.001,12.998S242.002,730,242.002,725z"/>
	<path fill="#B40F20" d="M11929.999,810.997c0-11.992,20-35.996,20.996-25.996c0,5.996,5-2.998,10-20
		c10-34.004,1.006-107.002-11.992-99.004c-5,3.008-9.004-10.996-9.004-30c0-20,4.004-35.996,9.004-35.996s11.992-10.996,15-25
		c3.994-15,15.996-27.002,30-30.996c13.994-3.008,26.992-12.002,30-21.006c2.998-7.998,10-10.996,15.996-7.998
		c5.996,4.004,10-5.996,10-24.004c0-37.998,27.002-41.992,35.996-5.996c3.008,14.004,10,25,14.004,25s10.996,10.996,14.004,25
		c3.994,14.004,10.996,25,15.996,25c5.996,0,10,25,10,55.996c0,34.004-4.004,53.008-10,49.004c-5.996-2.998-10,5-10,19.004
		c0,25.996-67.002,105.996-89.004,105.996c-6.992,0-8.994,5-5.996,10c2.998,5.996-2.998,10.996-14.004,12.002
		C11952.997,817.002,11929.999,815.997,11929.999,810.997z M12059.999,619.004c0-14.004-5-19.004-17.002-17.002
		c-25.996,5-28.994,37.998-3.994,37.998C12054.003,640,12059.999,634.004,12059.999,619.004z"/>
	<path fill="#B40F20" d="M11874.999,752.002c-4.004-19.004-12.002-27.998-27.002-29.004c-12.002-0.996-23.994-5.996-27.002-10.996
		c-2.998-5-30.996-11.006-61.992-14.004c-67.002-5-89.004-22.998-96.006-77.998c-2.998-22.002-8.994-37.002-13.994-34.004
		c-5,3.008-9.004-3.994-9.004-15c0-13.994-5.996-20.996-20-20.996c-29.004,0-25-19.004,7.998-30.996
		c36.006-14.004,174.004-7.002,180,8.994c2.002,7.002,9.004,12.002,15,12.002c15,0,57.002,44.004,57.002,57.998
		c0,6.006,4.004,12.002,10,14.004c12.002,3.994,24.004,108.994,15.996,142.002
		C11897.997,787.998,11882.997,787.002,11874.999,752.002z M11759.999,605c0-15.996-5.996-25-15-25s-15,9.004-15,25s5.996,25,15,25
		S11759.999,620.997,11759.999,605z"/>
	<path fill="#B40F20" d="M12915.995,752.002c23.008-15,34.004-50,24.004-77.002c-17.002-44.004-10.996-65.996,25-99.004
		c19.004-17.998,35-37.998,35-43.994c0-22.002,17.998-12.002,39.004,22.002c40,62.998,16.992,143.994-51.006,185.996
		C12957.997,757.998,12889.999,770,12915.995,752.002z M13009.999,624.004c0-9.004-5-14.004-12.002-12.002
		c-17.998,5.996-20.996,27.998-3.994,27.998C13002.997,640,13009.999,632.998,13009.999,624.004z"/>
	<path fill="#B40F20" d="M12884.999,710.997c-5.996-20.996-32.998-30.996-82.002-30.996c-35,0-55.996-22.002-67.998-72.002
		c-4.004-15.996-14.004-27.998-22.002-27.998c-12.998,0-12.998-2.998-2.998-15c17.998-22.002,97.998-19.004,137.998,5
		c36.006,22.002,62.002,72.002,62.002,119.004C12909.999,724.004,12894.003,739.004,12884.999,710.997z M12812.001,615
		c0-5-5-10.996-11.006-12.998c-5.996-2.002-10.996,3.994-10.996,12.998s5,15,10.996,12.998
		C12807.001,625.997,12812.001,620,12812.001,615z"/>
	<path fill="#B40F20" d="M6597.001,712.998c-4.004-2.998-7.002-27.998-7.002-55c0-47.002-5-52.998-37.002-48.994
		c-25,2.998-72.998-30-88.994-61.006c-21.006-40-13.008-102.002,16.992-133.994c20-21.006,31.006-24.004,101.006-24.004
		c62.998,0,80,2.998,85,15.996c2.998,9.004,0.996,19.004-6.006,23.008c-7.998,5.996-11.992,48.994-11.992,141.992
		c0,131.006-4.004,148.008-35,149.004C6607.998,720,6600,717.002,6597.001,712.998z M6585,500c0-52.998-0.996-55-29.004-57.998
		c-33.994-4.004-45.996,10-45.996,55c0,37.998,24.004,65,54.004,60.996C6582.001,555,6585,547.998,6585,500z"/>
	<path fill="#B40F20" d="M6714.003,575.997c-27.002-26.992-34.004-41.992-34.004-75C6680,422.002,6712.001,390,6795,390
		c55.996,0,75,7.998,75,30.996c0,20-4.004,21.006-65,20c-40-0.996-75,12.002-62.998,24.004c3.994,4.004,28.994,7.002,57.002,7.002
		c60.996-1.006,83.994,17.002,75,55.996c-11.006,44.004-24.003,62.002-50,72.002
		C6777.998,617.998,6749.003,610.997,6714.003,575.997z M6817.998,537.998c2.998-15-3.994-17.998-37.002-17.998
		c-42.998,0-50,7.002-28.994,27.998C6770,565.997,6814.003,559.004,6817.998,537.998z"/>
	<path fill="#B40F20" d="M10032.997,302.999c9.004-2.002,25-2.002,35,0c9.004,2.998,1.006,5-17.998,5
		S10022.997,305.997,10032.997,302.999z"/>
	<path d="M4020,190c0-7.002,840-10,2500-10s2500,2.998,2500,10s-840,10-2500,10S4020,197.002,4020,190z"/>
</g>
</svg>
